{
  "content": [
    {
      "id": 101,
      "name": "Workflow 1",
      "entityType": "LEAD",
      "createdBy": {
        "id": 101,
        "name": "Tony Start"
      },
      "updatedBy": {
        "id": 102,
        "name": "Steve Roger"
      },
      "createdAt": "2021-01-06T14:15:18.087+0000",
      "updatedAt": "2021-01-06T14:15:18.087+0000",
      "lastTriggeredAt": null,
      "triggerCount": 0,
      "active": true,
      "recordActions": {
        "read": true,
        "update": false,
        "write": true,
        "readAll": false,
        "updateAll": false
      }
    },
    {
      "id": 102,
      "name": "Workflow 2",
      "entityType": "LEAD",
      "createdBy": {
        "id": 101,
        "name": "Tony Start"
      },
      "updatedBy": {
        "id": 102,
        "name": "Steve Roger"
      },
      "createdAt": "2021-01-06T14:15:18.087+0000",
      "updatedAt": "2021-01-06T14:15:18.087+0000",
      "lastTriggeredAt": null,
      "triggerCount": 0,
      "active": true,
      "recordActions": {
        "read": true,
        "update": false,
        "write": true,
        "readAll": false,
        "updateAll": false
      }
    }
  ],
  "pageable": {
    "sort": {
      "sorted": true,
      "unsorted": false,
      "empty": false
    },
    "offset": 0,
    "pageNumber": 0,
    "pageSize": 10,
    "paged": true,
    "unpaged": false
  },
  "totalElements": 12,
  "totalPages": 2,
  "last": false,
  "size": 10,
  "number": 0,
  "sort": {
    "sorted": true,
    "unsorted": false,
    "empty": false
  },
  "first": true,
  "numberOfElements": 2,
  "empty": false
}